{
  "type": "service_account",
  "project_id": "hcw-2019",
  "private_key_id": "13300c66c06b0c189f3636189ee093b2c67595bf",
  "private_key": "-----BEGIN PRIVATE KEY-----\nMIIEvQIBADANBgkqhkiG9w0BAQEFAASCBKcwggSjAgEAAoIBAQCeulqqGY6E8n5Y\nab+Mv4PORBTCAQY/oG0yHiIGza8lbKAdBXZ4HA1ulPdh9lretCWO7cTlqXeuqcU+\nDJGAqGTLpvLHYNn0EXNAOBH9XkYs/HuIyCtzoxvxSnbbFWaLcguDOPVV7OredKvE\nDhNtiFDyg1sWcOEa8mf9BDz3Pu4JTWscZbx148YxW7akNYNnLl8AtBH1lZ0+4WUv\nXckG1RYzvxVx96kW4HTsVKWaGlHqjJxQ44S8/r3yU2d0Y7JNxNKYrnHKEoLuYbnR\nMu8V3qv1Y2/kN83QsfnFBlyyCDlf2lB12rYeUQ3zwVhwuin5JxK6r4Mpn72HRivf\nRh+tEvaxAgMBAAECggEAARLkV12/33pEAurps+yb4pBJUn1R0/28DaOf34tSkLbj\n2ztGPXmUEJjZzmjthEBfdOQAWeEW2D0/PNcajpVcAlXzZRj3tmmOzyO0DczjZOLX\npEbjWPkrwrB1+suChJ3rDqaKPm+1iXHWEh4+IQjGA9n8casEwlANANkMEXNj6nzx\n37w4+MWCejh6mxmTKHXhpwdnwiK/qq9cVyN7oo0qEFr6QpTGM9PojFjIY+jf7SsO\nRD2BR+0myOzOrLyBUMAoIFB4Www7bl6hA79RY27l3GK6333q2vH6dnxpJ9skdi37\nN3ILV51hwqmSvks08D1Cv8ICfWxLjDwuAuZZrmbIlQKBgQDKVSLGtA/FbgbDPk4f\nj4rGWzQv6726m6K4zyQnfCGAmEipKI7uVOont5/hTWVOf2Wo8/oe2H/skpIuTTsS\nCZVSAK/JEjh75zoPwkmdH6PMRvVDDi+E8WeIn9Cdj/jOJ6JfZbSajbm/CZ/jreP3\n1WOlKXUOuOAHsQNfGRPQekogdQKBgQDI1FxabLCLBTHEIv1G3RH8ZueusB71RbhH\nZ50iA79MWkXY+bm3kSNnqdE0mGVMwAKq/Zhaja2SpkCY/ynNGae+blcn4FBYlbwA\nBpkVBoopIZcUEunNMoiy0KRe6L/iqHazaqOdv4IPYU+44mwYKYkUHuVeob1PkVE5\nhRxQjyv1zQKBgGDH4F6TeofBXVK+1reZ/ZNrxMa3SIWeNHOaAX0xjwTn0rm3QMcX\nrvlYiA1I7BBkN8hdC2L9xBLw+SNUpdC27MnQskTHhmUd8VPgZz3VCJCJ0H9Gpcw9\nfHyJlUwItcZGhxCCoaTb7eFHRUeuwcCmPYefEPL904taTHaMlEHAfPyRAoGBAJ+d\n6SkVaduUbVFuXc+MtVbekxWMdY6Ls0NNXt5CDDErLoidMrZrbLBfkB81YI33ricp\nF4YhROthp8XyR87zrRb1q9/NsQ43NAzxMYo8gGLgh6s0vQ6SM4OrwHiOlLQZIP7I\nqvId28lNlodjrnYlzQVo6PSlqEktPllxKmf84vuhAoGAem0AEeXHyrh091nRXoW3\n+nvFg2GH32OdhRHv2x/PFk/eYEhueTHs4m/lNWItAtTfEOWaFgjUyFbGaaTc82vd\nEk4qCnWwcRtIr0/D6pDGRb/TVELFlRvd4ecsMRGTE9AY3MGohAWBRS/o70NH8b2Z\nNlkdaL3Ayo02binNB16IROs=\n-----END PRIVATE KEY-----\n",
  "client_email": "firebase-adminsdk-16fll@hcw-2019.iam.gserviceaccount.com",
  "client_id": "117967988494264586723",
  "auth_uri": "https://accounts.google.com/o/oauth2/auth",
  "token_uri": "https://oauth2.googleapis.com/token",
  "auth_provider_x509_cert_url": "https://www.googleapis.com/oauth2/v1/certs",
  "client_x509_cert_url": "https://www.googleapis.com/robot/v1/metadata/x509/firebase-adminsdk-16fll%40hcw-2019.iam.gserviceaccount.com"
}
